%YAML 1.1
%TAG !u! tag:unity3d.com,2011:
--- !u!114 &11400000
MonoBehaviour:
  m_ObjectHideFlags: 0
  m_CorrespondingSourceObject: {fileID: 0}
  m_PrefabInstance: {fileID: 0}
  m_PrefabAsset: {fileID: 0}
  m_GameObject: {fileID: 0}
  m_Enabled: 1
  m_EditorHideFlags: 0
  m_Script: {fileID: -1893448595, guid: a040fb66244a7f54289914d98ea4ef7d, type: 3}
  m_Name: Timer
  m_EditorClassIdentifier: 
  _data:
    _json: '{"graph":{"variables":{"collection":{"$content":[{"name":"currentTime","value":{"$content":0,"$type":"System.Int32"},"$version":"A"},{"name":"MissionComplete","value":{"$content":false,"$type":"System.Boolean"},"$version":"A"},{"name":"Allchecked","value":{"$content":true,"$type":"System.Boolean"},"$version":"A"}],"$version":"A"},"$version":"A"},"controlInputDefinitions":[],"controlOutputDefinitions":[],"valueInputDefinitions":[],"valueOutputDefinitions":[],"title":null,"summary":null,"pan":{"x":2577.315,"y":400.8418},"zoom":0.4999999,"elements":[{"coroutine":false,"defaultValues":{},"position":{"x":-208.0,"y":-316.0},"guid":"68d436bb-f5ee-49e7-89f3-8ed0a33b10fb","$version":"A","$type":"Bolt.Start","$id":"12"},{"chainable":false,"member":{"name":"GetComponentInChildren","parameterTypes":["System.Type"],"targetType":"UnityEngine.GameObject","targetTypeName":"UnityEngine.GameObject","$version":"A"},"defaultValues":{"target":null,"%type":{"$content":"MouseMove","$type":"System.RuntimeType"}},"position":{"x":1212.0,"y":441.0},"guid":"b18b3a93-0dab-47c0-965a-f5e648fe9372","$version":"A","$type":"Bolt.InvokeMember","$id":"14"},{"kind":"Graph","defaultValues":{"name":{"$content":"Allchecked","$type":"System.String"}},"position":{"x":-1261.0,"y":296.0},"guid":"1f9294e7-3cc3-48d7-8e4f-a85bdeb3acb8","$version":"A","$type":"Bolt.SetVariable","$id":"17"},{"specifyFallback":false,"kind":"Graph","defaultValues":{"name":{"$content":"Allchecked","$type":"System.String"}},"position":{"x":-961.0,"y":129.0},"guid":"4e39e0f5-74df-4f03-b0bc-3194807ac88a","$version":"A","$type":"Bolt.GetVariable","$id":"19"},{"type":"System.Boolean","value":{"$content":true,"$type":"System.Boolean"},"defaultValues":{},"position":{"x":-1434.0,"y":385.0},"guid":"6a5249a5-b2cb-4d51-b681-6c984eac933b","$version":"A","$type":"Bolt.Literal","$id":"21"},{"defaultValues":{},"position":{"x":2111.0,"y":784.0},"guid":"25b02cc3-52e5-4c89-a7e6-f8b4bc31ef0b","$version":"A","$type":"Bolt.Branch","$id":"23"},{"specifyFallback":false,"kind":"Object","defaultValues":{"name":{"$content":"MaxTime","$type":"System.String"},"object":null},"position":{"x":496.0,"y":1112.0},"guid":"54c75d03-5612-4789-9c1c-0958f4b80c0c","$version":"A","$type":"Bolt.GetVariable","$id":"25"},{"chainable":false,"member":{"name":"enabled","parameterTypes":null,"targetType":"Suck","targetTypeName":"Suck","$version":"A"},"defaultValues":{"target":null,"input":{"$content":false,"$type":"System.Boolean"}},"position":{"x":1746.0,"y":352.0},"guid":"a4e36eeb-dd04-436c-8eaa-3f5c836ebff0","$version":"A","$type":"Bolt.SetMember","$id":"27"},{"chainable":false,"member":{"name":"ToString","parameterTypes":[],"targetType":"System.Int32","targetTypeName":"System.Int32","$version":"A"},"defaultValues":{"target":{"$content":0,"$type":"System.Int32"}},"position":{"x":225.0,"y":-345.0},"guid":"1f294bee-e9c3-4f2c-a7d2-43698b715974","$version":"A","$type":"Bolt.InvokeMember","$id":"30"},{"chainable":false,"member":{"name":"Find","parameterTypes":["System.String"],"targetType":"UnityEngine.GameObject","targetTypeName":"UnityEngine.GameObject","$version":"A"},"defaultValues":{"%name":{"$content":"sucker","$type":"System.String"}},"position":{"x":962.0,"y":520.0},"guid":"50f48580-e5c6-4d9f-b339-fea7313883ad","$version":"A","$type":"Bolt.InvokeMember","$id":"33"},{"specifyFallback":false,"kind":"Graph","defaultValues":{"name":{"$content":"MissionComplete","$type":"System.String"}},"position":{"x":1790.0,"y":556.0},"guid":"c5d4d4ec-dd65-4936-94f7-555355804c99","$version":"A","$type":"Bolt.GetVariable","$id":"36"},{"defaultValues":{},"position":{"x":2054.0,"y":419.0},"guid":"4e675d69-65cb-4d17-850c-84cd49707fba","$version":"A","$type":"Bolt.Branch","$id":"38"},{"numeric":true,"defaultValues":{"b":{"$content":0.0,"$type":"System.Single"}},"position":{"x":548.0,"y":553.0},"guid":"23816081-7346-439c-858b-753a5a64c576","$version":"A","$type":"Bolt.LessOrEqual","$id":"40"},{"chainable":false,"member":{"name":"GetComponentInChildren","parameterTypes":["System.Type"],"targetType":"UnityEngine.GameObject","targetTypeName":"UnityEngine.GameObject","$version":"A"},"defaultValues":{"target":null,"%type":{"$content":"Suck","$type":"System.RuntimeType"}},"position":{"x":1208.0,"y":588.0},"guid":"e456b3ee-4652-41a6-91e3-3a7c81821951","$version":"A","$type":"Bolt.InvokeMember","$id":"42"},{"specifyFallback":false,"kind":"Graph","defaultValues":{"name":{"$content":"currentTime","$type":"System.String"}},"position":{"x":-155.0,"y":551.0},"guid":"ae9279fa-43af-4ea1-a0ad-27b2e08ffa92","$version":"A","$type":"Bolt.GetVariable","$id":"45"},{"member":{"name":"deltaTime","parameterTypes":null,"targetType":"UnityEngine.Time","targetTypeName":"UnityEngine.Time","$version":"A"},"defaultValues":{},"position":{"x":-360.0,"y":621.0},"guid":"8d81163d-dcb7-4e95-8d3b-95ad489eca45","$version":"A","$type":"Bolt.GetMember","$id":"47"},{"specifyFallback":false,"kind":"Object","defaultValues":{"name":{"$content":"TimeText","$type":"System.String"},"object":null},"position":{"x":1450.0,"y":1101.0},"guid":"3020524a-2857-4d14-962e-b2fe089028a7","$version":"A","$type":"Bolt.GetVariable","$id":"50"},{"defaultValues":{},"position":{"x":-284.0,"y":217.0},"guid":"b4f5c467-7f1d-4005-b602-510966b3112a","$version":"A","$type":"Bolt.Branch","$id":"52"},{"coroutine":false,"defaultValues":{},"position":{"x":-1418.0,"y":285.0},"guid":"09780cf5-8b6e-49df-896c-5e5da8a30a42","$version":"A","$type":"Bolt.Update","$id":"54"},{"chainable":false,"member":{"name":"text","parameterTypes":null,"targetType":"UnityEngine.UI.Text","targetTypeName":"UnityEngine.UI.Text","$version":"A"},"defaultValues":{"target":null,"input":{"$content":"","$type":"System.String"}},"position":{"x":409.0,"y":-342.0},"guid":"7640faa2-47af-43db-9bbc-e4a49da5fdf7","$version":"A","$type":"Bolt.SetMember","$id":"56"},{"type":"System.Int32","value":{"$content":1,"$type":"System.Int32"},"defaultValues":{},"position":{"x":-301.0,"y":731.0},"guid":"7d69fde0-6fa6-45d7-aec0-0ff9a0184b4a","$version":"A","$type":"Bolt.Literal","$id":"59"},{"chainable":false,"member":{"name":"enabled","parameterTypes":null,"targetType":"MouseMove","targetTypeName":"MouseMove","$version":"A"},"defaultValues":{"target":null,"input":{"$content":false,"$type":"System.Boolean"}},"position":{"x":1542.0,"y":326.0},"guid":"f42a7ada-982a-4915-856d-10dafcd49aca","$version":"A","$type":"Bolt.SetMember","$id":"61"},{"specifyFallback":false,"kind":"Object","defaultValues":{"name":{"$content":"TimeUpUI","$type":"System.String"},"object":null},"position":{"x":1833.0,"y":670.0},"guid":"f0a6e237-26f0-4a22-8fae-5d0daf197a80","$version":"A","$type":"Bolt.GetVariable","$id":"64"},{"kind":"Graph","defaultValues":{"name":{"$content":"MissionComplete","$type":"System.String"}},"position":{"x":-706.0,"y":137.0},"guid":"242d3230-e406-4227-96c6-075be6209e06","$version":"A","$type":"Bolt.SetVariable","$id":"66"},{"specifyFallback":false,"kind":"Scene","defaultValues":{"name":{"$content":"TickList","$type":"System.String"}},"position":{"x":-1278.0,"y":563.0},"guid":"febccb39-c88b-4806-a55c-c615a30b835b","$version":"A","$type":"Bolt.GetVariable","$id":"68"},{"specifyFallback":false,"kind":"Graph","defaultValues":{"name":{"$content":"currentTime","$type":"System.String"}},"position":{"x":1292.0,"y":991.0},"guid":"2bb5fa31-8e66-451c-9aa9-b6280c246e28","$version":"A","$type":"Bolt.GetVariable","$id":"70"},{"specifyFallback":false,"kind":"Object","defaultValues":{"name":{"$content":"TimeBar","$type":"System.String"},"object":null},"position":{"x":706.0,"y":907.0},"guid":"e04e08f3-bc15-4d1b-9067-c8c766fb7fa6","$version":"A","$type":"Bolt.GetVariable","$id":"72"},{"kind":"Graph","defaultValues":{"name":{"$content":"Allchecked","$type":"System.String"}},"position":{"x":-666.0,"y":466.0},"guid":"3226aa78-38bd-49ec-b9b7-1d3b6dc8f48a","$version":"A","$type":"Bolt.SetVariable","$id":"74"},{"defaultValues":{},"position":{"x":704.0,"y":364.0},"guid":"982fd9e5-525b-4752-92cd-05d10cdbf933","$version":"A","$type":"Bolt.Branch","$id":"76"},{"specifyFallback":false,"kind":"Graph","defaultValues":{"name":{"$content":"currentTime","$type":"System.String"}},"position":{"x":502.0,"y":983.0},"guid":"926e2321-13a0-471d-b21c-4379ad5ab47f","$version":"A","$type":"Bolt.GetVariable","$id":"78"},{"specifyFallback":false,"kind":"Object","defaultValues":{"name":{"$content":"TimeText","$type":"System.String"},"object":null},"position":{"x":228.0,"y":-174.0},"guid":"f58d038f-06f0-481a-aa10-8cfdc72c8782","$version":"A","$type":"Bolt.GetVariable","$id":"80"},{"chainable":false,"member":{"name":"ToPlacingStage","parameterTypes":[],"targetType":"StageManager","targetTypeName":"StageManager","$version":"A"},"defaultValues":{"target":null},"position":{"x":2763.0,"y":583.0},"guid":"dcff5049-2fad-43cc-9d1b-54f684b13395","$version":"A","$type":"Bolt.InvokeMember","$id":"82"},{"specifyFallback":false,"kind":"Object","defaultValues":{"name":{"$content":"MaxTime","$type":"System.String"},"object":null},"position":{"x":-222.0,"y":-159.0},"guid":"b1264a28-cf69-472d-a0d9-bcd29a6e6473","$version":"A","$type":"Bolt.GetVariable","$id":"85"},{"defaultValues":{},"position":{"x":-131.0,"y":679.0},"guid":"fdfeabde-7054-495d-91b1-b811f5c0836c","$version":"A","$type":"Bolt.GenericMultiply","$id":"87"},{"specifyFallback":false,"kind":"Graph","defaultValues":{"name":{"$content":"MissionComplete","$type":"System.String"}},"position":{"x":1883.0,"y":1073.0},"guid":"d7a2f5bc-61c5-49e1-b48d-84cb825ae0bf","$version":"A","$type":"Bolt.GetVariable","$id":"89"},{"chainable":false,"member":{"name":"GetComponent","parameterTypes":["System.Type"],"targetType":"UnityEngine.GameObject","targetTypeName":"UnityEngine.GameObject","$version":"A"},"defaultValues":{"target":null,"%type":{"$content":"StageManager","$type":"System.RuntimeType"}},"position":{"x":2448.0,"y":941.0},"guid":"7a2215d1-6667-4539-bf5a-5f557d09982b","$version":"A","$type":"Bolt.InvokeMember","$id":"91"},{"defaultValues":{},"position":{"x":-834.0,"y":439.0},"guid":"0bf875c3-b65b-4ed5-b7c4-df7b49b3ebe2","$version":"A","$type":"Bolt.Branch","$id":"94"},{"dictionary":true,"defaultValues":{},"position":{"x":-1056.0,"y":345.0},"guid":"e14fdf1e-1a0a-42ce-ab60-b4a1e107b0d2","$version":"A","$type":"Bolt.ForEach","$id":"96"},{"specifyFallback":false,"kind":"Object","defaultValues":{"name":{"$content":"isPause","$type":"System.String"},"object":null},"position":{"x":-602.0,"y":313.0},"guid":"fd671a95-2e1f-46d7-88f3-e39f13f8cbbd","$version":"A","$type":"Bolt.GetVariable","$id":"98"},{"defaultValues":{},"position":{"x":73.0,"y":573.0},"guid":"41467ecb-8e6b-4b16-bac2-826235a5eda5","$version":"A","$type":"Bolt.GenericSubtract","$id":"100"},{"chainable":false,"member":{"name":"ToString","parameterTypes":[],"targetType":"System.Int32","targetTypeName":"System.Int32","$version":"A"},"defaultValues":{"target":{"$content":0,"$type":"System.Int32"}},"position":{"x":1488.0,"y":927.0},"guid":"df1d4735-6c32-4c01-9f38-dd58131ac24a","$version":"A","$type":"Bolt.InvokeMember","$id":"102"},{"kind":"Graph","defaultValues":{"name":{"$content":"currentTime","$type":"System.String"}},"position":{"x":4.0,"y":-347.0},"guid":"9b22a8dc-7557-49ee-929a-fa1b8f38637c","$version":"A","$type":"Bolt.SetVariable","$id":"105"},{"chainable":false,"member":{"name":"text","parameterTypes":null,"targetType":"UnityEngine.UI.Text","targetTypeName":"UnityEngine.UI.Text","$version":"A"},"defaultValues":{"target":null,"input":{"$content":"","$type":"System.String"}},"position":{"x":1684.0,"y":941.0},"guid":"db22c5fe-6508-4572-9c93-76cbd111d8e1","$version":"A","$type":"Bolt.SetMember","$id":"107"},{"kind":"Graph","defaultValues":{"name":{"$content":"currentTime","$type":"System.String"}},"position":{"x":223.0,"y":391.0},"guid":"dff44139-ffdc-4b8b-86b4-71964062f59d","$version":"A","$type":"Bolt.SetVariable","$id":"110"},{"chainable":false,"member":{"name":"SetActive","parameterTypes":["System.Boolean"],"targetType":"UnityEngine.GameObject","targetTypeName":"UnityEngine.GameObject","$version":"A"},"defaultValues":{"target":null,"%value":{"$content":true,"$type":"System.Boolean"}},"position":{"x":2175.0,"y":563.0},"guid":"07481821-2f00-4e46-9875-decc2d383b97","$version":"A","$type":"Bolt.InvokeMember","$id":"112"},{"chainable":false,"member":{"name":"fillAmount","parameterTypes":null,"targetType":"UnityEngine.UI.Image","targetTypeName":"UnityEngine.UI.Image","$version":"A"},"defaultValues":{"target":null,"input":{"$content":0.0,"$type":"System.Single"}},"position":{"x":965.0,"y":997.0},"guid":"bc437d6b-20a3-4028-94ca-d61c3bc3952a","$version":"A","$type":"Bolt.SetMember","$id":"115"},{"defaultValues":{},"position":{"x":713.0,"y":1063.0},"guid":"7a70db07-3319-4f26-8d49-dd58d8fffc1c","$version":"A","$type":"Bolt.GenericDivide","$id":"118"},{"specifyFallback":false,"kind":"Object","defaultValues":{"name":{"$content":"StageManager","$type":"System.String"},"object":null},"position":{"x":2205.0,"y":978.0},"guid":"1e3de9cf-899a-4ff6-9a97-6293f158c981","$version":"A","$type":"Bolt.GetVariable","$id":"120"},{"type":"System.Boolean","value":{"$content":false,"$type":"System.Boolean"},"defaultValues":{},"position":{"x":-859.0,"y":575.0},"guid":"c407c6d4-71d8-4bdf-895a-08297270f9a5","$version":"A","$type":"Bolt.Literal","$id":"122"},{"chainable":false,"member":{"name":"enabled","parameterTypes":null,"targetType":"MouseMove","targetTypeName":"MouseMove","$version":"A"},"defaultValues":{"target":null,"input":{"$content":false,"$type":"System.Boolean"}},"position":{"x":2777.0,"y":88.0},"guid":"cbdd5d7b-05df-4860-8b9b-20a3dd0a0e61","$version":"A","$type":"Bolt.SetMember","$id":"124"},{"chainable":false,"member":{"name":"GetComponentInChildren","parameterTypes":["System.Type"],"targetType":"UnityEngine.GameObject","targetTypeName":"UnityEngine.GameObject","$version":"A"},"defaultValues":{"target":null,"%type":{"$content":"MouseMove","$type":"System.RuntimeType"}},"position":{"x":2409.0,"y":161.0},"guid":"89c86240-d08a-4907-a12a-ccabc7275afc","$version":"A","$type":"Bolt.InvokeMember","$id":"127"},{"chainable":false,"member":{"name":"Find","parameterTypes":["System.String"],"targetType":"UnityEngine.GameObject","targetTypeName":"UnityEngine.GameObject","$version":"A"},"defaultValues":{"%name":{"$content":"sucker","$type":"System.String"}},"position":{"x":2197.0,"y":282.0},"guid":"f1fef8a0-8f95-43e5-9e9e-1bb5c8f0a8ea","$version":"A","$type":"Bolt.InvokeMember","$id":"130"},{"chainable":false,"member":{"name":"GetComponentInChildren","parameterTypes":["System.Type"],"targetType":"UnityEngine.GameObject","targetTypeName":"UnityEngine.GameObject","$version":"A"},"defaultValues":{"target":null,"%type":{"$content":"Suck","$type":"System.RuntimeType"}},"position":{"x":2443.0,"y":350.0},"guid":"5b3a8aa7-252b-49de-b360-62a4c4f7bb4b","$version":"A","$type":"Bolt.InvokeMember","$id":"133"},{"chainable":false,"member":{"name":"enabled","parameterTypes":null,"targetType":"Suck","targetTypeName":"Suck","$version":"A"},"defaultValues":{"target":null,"input":{"$content":false,"$type":"System.Boolean"}},"position":{"x":3033.0,"y":233.0},"guid":"c426d197-4ca6-48ce-bd05-69d0e7087298","$version":"A","$type":"Bolt.SetMember","$id":"136"},{"sourceUnit":{"$ref":"27"},"sourceKey":"assigned","destinationUnit":{"$ref":"38"},"destinationKey":"enter","guid":"e228ad56-08b8-46d4-8f9a-58f67fd86402","$type":"Bolt.ControlConnection"},{"sourceUnit":{"$ref":"38"},"sourceKey":"ifTrue","destinationUnit":{"$ref":"82"},"destinationKey":"enter","guid":"f01a6373-59ce-46d1-acab-cd1ae41443e8","$type":"Bolt.ControlConnection"},{"sourceUnit":{"$ref":"96"},"sourceKey":"body","destinationUnit":{"$ref":"94"},"destinationKey":"enter","guid":"bfa73c01-cb1f-4ef2-a6bb-75f7955c3edf","$type":"Bolt.ControlConnection"},{"sourceUnit":{"$ref":"30"},"sourceKey":"exit","destinationUnit":{"$ref":"56"},"destinationKey":"assign","guid":"726be614-7b6c-4464-ac41-a89c3a682225","$type":"Bolt.ControlConnection"},{"sourceUnit":{"$ref":"110"},"sourceKey":"assigned","destinationUnit":{"$ref":"76"},"destinationKey":"enter","guid":"efb90c88-ff01-4a3b-9932-10bd55d23f0c","$type":"Bolt.ControlConnection"},{"sourceUnit":{"$ref":"54"},"sourceKey":"trigger","destinationUnit":{"$ref":"17"},"destinationKey":"assign","guid":"75c7b4e2-d448-4614-8baf-c50e95b949be","$type":"Bolt.ControlConnection"},{"sourceUnit":{"$ref":"96"},"sourceKey":"exit","destinationUnit":{"$ref":"66"},"destinationKey":"assign","guid":"53f065fd-3d62-4d09-b266-da675a8b22b9","$type":"Bolt.ControlConnection"},{"sourceUnit":{"$ref":"38"},"sourceKey":"ifFalse","destinationUnit":{"$ref":"112"},"destinationKey":"enter","guid":"4fbb1a4a-15a3-4118-a6d0-4e41ec73e2b1","$type":"Bolt.ControlConnection"},{"sourceUnit":{"$ref":"102"},"sourceKey":"exit","destinationUnit":{"$ref":"107"},"destinationKey":"assign","guid":"2d5d9482-6c26-4d22-b025-655de9ffa3cc","$type":"Bolt.ControlConnection"},{"sourceUnit":{"$ref":"23"},"sourceKey":"ifTrue","destinationUnit":{"$ref":"82"},"destinationKey":"enter","guid":"a71ed6cc-fc5b-42de-9ccd-47bec6eb151e","$type":"Bolt.ControlConnection"},{"sourceUnit":{"$ref":"105"},"sourceKey":"assigned","destinationUnit":{"$ref":"30"},"destinationKey":"enter","guid":"048e41fb-f7a5-4b1b-b40d-5cb106ca68b1","$type":"Bolt.ControlConnection"},{"sourceUnit":{"$ref":"94"},"sourceKey":"ifFalse","destinationUnit":{"$ref":"74"},"destinationKey":"assign","guid":"114a31a4-ee31-4084-9586-e40140fa9b78","$type":"Bolt.ControlConnection"},{"sourceUnit":{"$ref":"52"},"sourceKey":"ifFalse","destinationUnit":{"$ref":"110"},"destinationKey":"assign","guid":"3083715e-67a6-408c-b41e-e0724da4af64","$type":"Bolt.ControlConnection"},{"sourceUnit":{"$ref":"12"},"sourceKey":"trigger","destinationUnit":{"$ref":"105"},"destinationKey":"assign","guid":"166a48b7-a12e-4b0d-be91-586d271fa22d","$type":"Bolt.ControlConnection"},{"sourceUnit":{"$ref":"107"},"sourceKey":"assigned","destinationUnit":{"$ref":"23"},"destinationKey":"enter","guid":"00e8ff72-8722-4422-a4b4-15c04b114b6a","$type":"Bolt.ControlConnection"},{"sourceUnit":{"$ref":"76"},"sourceKey":"ifFalse","destinationUnit":{"$ref":"115"},"destinationKey":"assign","guid":"502afa52-3651-44d4-aa85-45e2be859f27","$type":"Bolt.ControlConnection"},{"sourceUnit":{"$ref":"17"},"sourceKey":"assigned","destinationUnit":{"$ref":"96"},"destinationKey":"enter","guid":"3c295d46-92db-4a82-8b69-b517f34f379a","$type":"Bolt.ControlConnection"},{"sourceUnit":{"$ref":"66"},"sourceKey":"assigned","destinationUnit":{"$ref":"52"},"destinationKey":"enter","guid":"ee29b038-03f5-40a3-b648-ca1400c36523","$type":"Bolt.ControlConnection"},{"sourceUnit":{"$ref":"76"},"sourceKey":"ifTrue","destinationUnit":{"$ref":"61"},"destinationKey":"assign","guid":"b80dde3f-ac33-402e-83e7-36e24e544b24","$type":"Bolt.ControlConnection"},{"sourceUnit":{"$ref":"115"},"sourceKey":"assigned","destinationUnit":{"$ref":"102"},"destinationKey":"enter","guid":"26d8c7b6-43d8-4c16-b37d-3435a4b5cd10","$type":"Bolt.ControlConnection"},{"sourceUnit":{"$ref":"61"},"sourceKey":"assigned","destinationUnit":{"$ref":"27"},"destinationKey":"assign","guid":"447bf7dd-91f9-45d5-a6f7-d6af3d9caa3a","$type":"Bolt.ControlConnection"},{"sourceUnit":{"$ref":"112"},"sourceKey":"exit","destinationUnit":{"$ref":"124"},"destinationKey":"assign","guid":"f6b109c3-3429-4ff1-812f-729d63086916","$type":"Bolt.ControlConnection"},{"sourceUnit":{"$ref":"124"},"sourceKey":"assigned","destinationUnit":{"$ref":"136"},"destinationKey":"assign","guid":"155bd0c9-1ef9-4a27-baa4-014bb8bb0ef9","$type":"Bolt.ControlConnection"},{"sourceUnit":{"$ref":"100"},"sourceKey":"difference","destinationUnit":{"$ref":"110"},"destinationKey":"input","guid":"3bbeb04d-7b93-4db7-9a64-2b17cada7bcb","$type":"Bolt.ValueConnection"},{"sourceUnit":{"$ref":"120"},"sourceKey":"value","destinationUnit":{"$ref":"91"},"destinationKey":"target","guid":"d751b39d-fa68-4e5c-8691-a416ec065338","$type":"Bolt.ValueConnection"},{"sourceUnit":{"$ref":"98"},"sourceKey":"value","destinationUnit":{"$ref":"52"},"destinationKey":"condition","guid":"86822be2-362f-4957-942e-e7ae4a94580a","$type":"Bolt.ValueConnection"},{"sourceUnit":{"$ref":"118"},"sourceKey":"quotient","destinationUnit":{"$ref":"115"},"destinationKey":"input","guid":"2900f34a-3095-47a9-9f59-e3a1158af671","$type":"Bolt.ValueConnection"},{"sourceUnit":{"$ref":"59"},"sourceKey":"output","destinationUnit":{"$ref":"87"},"destinationKey":"b","guid":"5833e1bd-6fb7-4ae1-abff-27cff2af5140","$type":"Bolt.ValueConnection"},{"sourceUnit":{"$ref":"40"},"sourceKey":"comparison","destinationUnit":{"$ref":"76"},"destinationKey":"condition","guid":"03fb266a-b33f-4395-a05a-d3a5eada5ada","$type":"Bolt.ValueConnection"},{"sourceUnit":{"$ref":"19"},"sourceKey":"value","destinationUnit":{"$ref":"66"},"destinationKey":"input","guid":"528a5e4b-7018-41ea-ab3e-d1a18fa122f4","$type":"Bolt.ValueConnection"},{"sourceUnit":{"$ref":"68"},"sourceKey":"value","destinationUnit":{"$ref":"96"},"destinationKey":"collection","guid":"53e937a1-0fe0-47f5-8fcf-9f9737b19dfb","$type":"Bolt.ValueConnection"},{"sourceUnit":{"$ref":"30"},"sourceKey":"result","destinationUnit":{"$ref":"56"},"destinationKey":"input","guid":"c4dcd81e-e2d0-4f29-a8ec-f7e41ca08d0c","$type":"Bolt.ValueConnection"},{"sourceUnit":{"$ref":"78"},"sourceKey":"value","destinationUnit":{"$ref":"118"},"destinationKey":"dividend","guid":"751e647c-8cd9-4204-bca3-4cd14cb38fad","$type":"Bolt.ValueConnection"},{"sourceUnit":{"$ref":"33"},"sourceKey":"result","destinationUnit":{"$ref":"42"},"destinationKey":"target","guid":"853b5dd1-37f9-475c-bc8a-28ca50c819b0","$type":"Bolt.ValueConnection"},{"sourceUnit":{"$ref":"89"},"sourceKey":"value","destinationUnit":{"$ref":"23"},"destinationKey":"condition","guid":"529b93e2-5af5-46b5-a5eb-914d40652fa0","$type":"Bolt.ValueConnection"},{"sourceUnit":{"$ref":"45"},"sourceKey":"value","destinationUnit":{"$ref":"100"},"destinationKey":"minuend","guid":"f81eba46-ed14-426b-9c47-7148b6d4f518","$type":"Bolt.ValueConnection"},{"sourceUnit":{"$ref":"50"},"sourceKey":"value","destinationUnit":{"$ref":"107"},"destinationKey":"target","guid":"5e8e5a76-5d03-444b-a295-1aca2adca42c","$type":"Bolt.ValueConnection"},{"sourceUnit":{"$ref":"102"},"sourceKey":"result","destinationUnit":{"$ref":"107"},"destinationKey":"input","guid":"8459567f-d393-46b1-a1f2-4092c1a575a3","$type":"Bolt.ValueConnection"},{"sourceUnit":{"$ref":"87"},"sourceKey":"product","destinationUnit":{"$ref":"100"},"destinationKey":"subtrahend","guid":"ee86729e-25d9-4cde-aef0-1d5e8c58a9c5","$type":"Bolt.ValueConnection"},{"sourceUnit":{"$ref":"72"},"sourceKey":"value","destinationUnit":{"$ref":"115"},"destinationKey":"target","guid":"3985343d-1cc5-400e-9403-b59cc21ab78b","$type":"Bolt.ValueConnection"},{"sourceUnit":{"$ref":"91"},"sourceKey":"result","destinationUnit":{"$ref":"82"},"destinationKey":"target","guid":"40989031-172a-458c-ae54-c9ce6e3ee75b","$type":"Bolt.ValueConnection"},{"sourceUnit":{"$ref":"42"},"sourceKey":"result","destinationUnit":{"$ref":"27"},"destinationKey":"target","guid":"d15e1185-60f7-45a7-bff5-6cadd86e94a7","$type":"Bolt.ValueConnection"},{"sourceUnit":{"$ref":"96"},"sourceKey":"currentItem","destinationUnit":{"$ref":"94"},"destinationKey":"condition","guid":"bb3e8c53-7dae-4312-aa45-144d7287e066","$type":"Bolt.ValueConnection"},{"sourceUnit":{"$ref":"110"},"sourceKey":"output","destinationUnit":{"$ref":"40"},"destinationKey":"a","guid":"8e8e1311-4526-4cdd-b4e1-e7025e6b3d38","$type":"Bolt.ValueConnection"},{"sourceUnit":{"$ref":"25"},"sourceKey":"value","destinationUnit":{"$ref":"118"},"destinationKey":"divisor","guid":"79cb6bc3-a329-40c3-94f6-47917bbdabfc","$type":"Bolt.ValueConnection"},{"sourceUnit":{"$ref":"70"},"sourceKey":"value","destinationUnit":{"$ref":"102"},"destinationKey":"target","guid":"826cd05c-5ed0-4fbc-9853-b7be8dff5898","$type":"Bolt.ValueConnection"},{"sourceUnit":{"$ref":"33"},"sourceKey":"result","destinationUnit":{"$ref":"14"},"destinationKey":"target","guid":"3af14d70-43b0-460f-a3f3-870245dee88d","$type":"Bolt.ValueConnection"},{"sourceUnit":{"$ref":"105"},"sourceKey":"output","destinationUnit":{"$ref":"30"},"destinationKey":"target","guid":"df900ff4-6202-4db2-9ce3-281ad0e3ec52","$type":"Bolt.ValueConnection"},{"sourceUnit":{"$ref":"47"},"sourceKey":"value","destinationUnit":{"$ref":"87"},"destinationKey":"a","guid":"c28c8985-abc0-4c00-b268-e5a75ac3ffe6","$type":"Bolt.ValueConnection"},{"sourceUnit":{"$ref":"36"},"sourceKey":"value","destinationUnit":{"$ref":"38"},"destinationKey":"condition","guid":"6256dffd-76cd-40d8-9384-47cce93ccc6a","$type":"Bolt.ValueConnection"},{"sourceUnit":{"$ref":"14"},"sourceKey":"result","destinationUnit":{"$ref":"61"},"destinationKey":"target","guid":"177c8ad6-eed9-4194-9796-a5db8e030c9e","$type":"Bolt.ValueConnection"},{"sourceUnit":{"$ref":"122"},"sourceKey":"output","destinationUnit":{"$ref":"74"},"destinationKey":"input","guid":"952ee19c-75a9-4a90-bc4b-312ff1de9375","$type":"Bolt.ValueConnection"},{"sourceUnit":{"$ref":"64"},"sourceKey":"value","destinationUnit":{"$ref":"112"},"destinationKey":"target","guid":"4c2a4d8c-6324-4bff-a571-aaa14bd35488","$type":"Bolt.ValueConnection"},{"sourceUnit":{"$ref":"21"},"sourceKey":"output","destinationUnit":{"$ref":"17"},"destinationKey":"input","guid":"dab43514-ea6b-4a29-9ec7-0a336af601d0","$type":"Bolt.ValueConnection"},{"sourceUnit":{"$ref":"85"},"sourceKey":"value","destinationUnit":{"$ref":"105"},"destinationKey":"input","guid":"41a1a4b8-eb69-43cb-bd65-f0d789c95107","$type":"Bolt.ValueConnection"},{"sourceUnit":{"$ref":"80"},"sourceKey":"value","destinationUnit":{"$ref":"56"},"destinationKey":"target","guid":"a0b4f8ed-9720-443e-b06d-e9ce8e40af9d","$type":"Bolt.ValueConnection"},{"sourceUnit":{"$ref":"127"},"sourceKey":"result","destinationUnit":{"$ref":"124"},"destinationKey":"target","guid":"f22ad9a9-eb8b-457e-8b26-31e9539e0b01","$type":"Bolt.ValueConnection"},{"sourceUnit":{"$ref":"130"},"sourceKey":"result","destinationUnit":{"$ref":"127"},"destinationKey":"target","guid":"d31eb979-c1ef-4269-a389-037703957e33","$type":"Bolt.ValueConnection"},{"sourceUnit":{"$ref":"130"},"sourceKey":"result","destinationUnit":{"$ref":"133"},"destinationKey":"target","guid":"865c61c6-9e54-4aa8-a584-a4b8964b59c9","$type":"Bolt.ValueConnection"},{"sourceUnit":{"$ref":"133"},"sourceKey":"result","destinationUnit":{"$ref":"136"},"destinationKey":"target","guid":"d1c2b2d8-b0f4-44d2-92bd-520f41725f23","$type":"Bolt.ValueConnection"},{"position":{"xMin":1266.0,"yMin":881.0,"xMax":1816.0,"yMax":1246.0},"label":"UpdateText","comment":null,"color":{"r":0.0,"g":0.0,"b":0.0,"a":1.0},"guid":"8c486d53-af7c-4e9f-b41d-b2096e51dfb2","$version":"A","$type":"Ludiq.GraphGroup"},{"position":{"xMin":1027.0,"yMin":321.0,"xMax":1631.0,"yMax":627.0},"label":"UnableSucker","comment":null,"color":{"r":0.0,"g":0.0,"b":0.0,"a":1.0},"guid":"cfe91622-d84c-4608-9d54-01ce78df7a05","$version":"A","$type":"Ludiq.GraphGroup"},{"position":{"xMin":-259.1111,"yMin":-423.8889,"xMax":569.7778,"yMax":46.66669},"label":"InitialText","comment":null,"color":{"r":0.0,"g":0.0,"b":0.0,"a":1.0},"guid":"4e3ae6ae-399a-4958-851e-4de4285f9059","$version":"A","$type":"Ludiq.GraphGroup"},{"position":{"xMin":-436.0,"yMin":316.0,"xMax":398.0,"yMax":911.0},"label":"CalculateTime","comment":null,"color":{"r":0.0,"g":0.0,"b":0.0,"a":1.0},"guid":"87936196-b550-4f31-b4c1-775cfa52ece1","$version":"A","$type":"Ludiq.GraphGroup"},{"position":{"xMin":450.0,"yMin":868.0,"xMax":1188.0,"yMax":1324.0},"label":"UpdateLength","comment":null,"color":{"r":0.0,"g":0.0,"b":0.0,"a":1.0},"guid":"9c271d37-af68-4041-add3-5030a0cbc4e4","$version":"A","$type":"Ludiq.GraphGroup"},{"position":{"xMin":484.0,"yMin":334.0,"xMax":870.0,"yMax":713.0},"label":"TimeUPorNot","comment":null,"color":{"r":0.0,"g":0.0,"b":0.0,"a":1.0},"guid":"a9bc2fe8-2417-48e7-882a-ece4a4c2c3c8","$version":"A","$type":"Ludiq.GraphGroup"}],"$version":"A"}}'
    _objectReferences: []
